{
  "generated_at": "2018-10-26T17:05:23+00:00",
  "schema": "http:\/\/schemas.sportradar.com\/bsa\/soccer\/v1\/json\/endpoints\/soccer\/match_summary.json",
  "sport_event": {
    "id": "sr:match:13797433",
    "scheduled": "2018-04-14T19:00:00+00:00",
    "start_time_tbd": false,
    "tournament_round": {
      "type": "group",
      "number": 1,
      "phase": "regular season"
    },
    "season": {
      "id": "sr:season:51253",
      "name": "Brasileiro Serie A 2018",
      "start_date": "2018-04-14",
      "end_date": "2018-12-16",
      "year": "2018",
      "tournament_id": "sr:tournament:325"
    },
    "tournament": {
      "id": "sr:tournament:325",
      "name": "Brasileiro Serie A",
      "sport": {
        "id": "sr:sport:1",
        "name": "Soccer"
      },
      "category": {
        "id": "sr:category:13",
        "name": "Brazil",
        "country_code": "BRA"
      }
    },
    "competitors": [{
      "id": "sr:competitor:1954",
      "name": "Cruzeiro MG",
      "country": "Brazil",
      "country_code": "BRA",
      "abbreviation": "CRU",
      "qualifier": "home"
    }, {
      "id": "sr:competitor:5926",
      "name": "Gremio FB Porto Alegrense",
      "country": "Brazil",
      "country_code": "BRA",
      "abbreviation": "GPA",
      "qualifier": "away"
    }],
    "venue": {
      "id": "sr:venue:987",
      "name": "Mineirao Stadium",
      "capacity": 58170,
      "city_name": "Belo Horizonte",
      "country_name": "Brazil",
      "map_coordinates": "-19.865822,-43.971385",
      "country_code": "BRA"
    }
  },
  "sport_event_conditions": {
    "referee": {
      "id": "sr:referee:844899",
      "name": "Toski Marques, Rodolpho",
      "nationality": "Brazil",
      "country_code": "BRA"
    },
    "venue": {
      "id": "sr:venue:987",
      "name": "Mineirao Stadium",
      "capacity": 58170,
      "city_name": "Belo Horizonte",
      "country_name": "Brazil",
      "map_coordinates": "-19.865822,-43.971385",
      "country_code": "BRA"
    },
    "weather_info": {
      "pitch": "good",
      "weather_conditions": "good"
    }
  },
  "sport_event_status": {
    "status": "closed",
    "match_status": "ended",
    "home_score": 0,
    "away_score": 1,
    "winner_id": "sr:competitor:5926",
    "period_scores": [{
      "home_score": 0,
      "away_score": 0,
      "type": "regular_period",
      "number": 1
    }, {
      "home_score": 0,
      "away_score": 1,
      "type": "regular_period",
      "number": 2
    }]
  },
  "statistics": {
    "teams": [{
      "id": "sr:competitor:1954",
      "name": "Cruzeiro MG",
      "abbreviation": "CRU",
      "qualifier": "home",
      "statistics": {
        "ball_possession": 42,
        "fouls": 19,
        "goal_kicks": 3,
        "throw_ins": 14,
        "shots_on_target": 4,
        "free_kicks": 16,
        "corner_kicks": 7,
        "shots_off_target": 3,
        "shots_blocked": 3,
        "shots_saved": 1,
        "yellow_cards": 3
      },
      "players": [{
        "id": "sr:player:17785",
        "name": "Fabio",
        "substituted_in": 0,
        "substituted_out": 0,
        "goals_scored": 0,
        "assists": 0,
        "own_goals": 0,
        "yellow_cards": 0,
        "yellow_red_cards": 0,
        "red_cards": 0
      }, {
        "id": "sr:player:123349",
        "name": "Edilson",
        "substituted_in": 0,
        "substituted_out": 0,
        "goals_scored": 0,
        "assists": 0,
        "own_goals": 0,
        "yellow_cards": 0,
        "yellow_red_cards": 0,
        "red_cards": 0
      }, {
        "id": "sr:player:35574",
        "name": "Lacerda, Leo",
        "substituted_in": 0,
        "substituted_out": 0,
        "goals_scored": 0,
        "assists": 0,
        "own_goals": 0,
        "yellow_cards": 0,
        "yellow_red_cards": 0,
        "red_cards": 0
      }, {
        "id": "sr:player:166701",
        "name": "Dede",
        "substituted_in": 0,
        "substituted_out": 0,
        "goals_scored": 0,
        "assists": 0,
        "own_goals": 0,
        "yellow_cards": 1,
        "yellow_red_cards": 0,
        "red_cards": 0
      }, {
        "id": "sr:player:34147",
        "name": "Egidio",
        "substituted_in": 0,
        "substituted_out": 0,
        "goals_scored": 0,
        "assists": 0,
        "own_goals": 0,
        "yellow_cards": 0,
        "yellow_red_cards": 0,
        "red_cards": 0
      }, {
        "id": "sr:player:125018",
        "name": "Robinho",
        "substituted_in": 0,
        "substituted_out": 1,
        "goals_scored": 0,
        "assists": 0,
        "own_goals": 0,
        "yellow_cards": 0,
        "yellow_red_cards": 0,
        "red_cards": 0
      }, {
        "id": "sr:player:33534",
        "name": "Thiago Neves",
        "substituted_in": 0,
        "substituted_out": 0,
        "goals_scored": 0,
        "assists": 0,
        "own_goals": 0,
        "yellow_cards": 0,
        "yellow_red_cards": 0,
        "red_cards": 0
      }, {
        "id": "sr:player:33117",
        "name": "Henrique",
        "substituted_in": 0,
        "substituted_out": 0,
        "goals_scored": 0,
        "assists": 0,
        "own_goals": 0,
        "yellow_cards": 0,
        "yellow_red_cards": 0,
        "red_cards": 0
      }, {
        "id": "sr:player:48471",
        "name": "Cabral, Ariel",
        "substituted_in": 0,
        "substituted_out": 1,
        "goals_scored": 0,
        "assists": 0,
        "own_goals": 0,
        "yellow_cards": 1,
        "yellow_red_cards": 0,
        "red_cards": 0
      }, {
        "id": "sr:player:333587",
        "name": "De Arrascaeta, Giorgian",
        "substituted_in": 0,
        "substituted_out": 0,
        "goals_scored": 0,
        "assists": 0,
        "own_goals": 0,
        "yellow_cards": 0,
        "yellow_red_cards": 0,
        "red_cards": 0
      }, {
        "id": "sr:player:17789",
        "name": "Sobis, Rafael",
        "substituted_in": 0,
        "substituted_out": 1,
        "goals_scored": 0,
        "assists": 0,
        "own_goals": 0,
        "yellow_cards": 0,
        "yellow_red_cards": 0,
        "red_cards": 0
      }, {
        "id": "sr:player:243157",
        "name": "Sassa",
        "substituted_in": 1,
        "substituted_out": 0,
        "goals_scored": 0,
        "assists": 0,
        "own_goals": 0,
        "yellow_cards": 1,
        "yellow_red_cards": 0,
        "red_cards": 0
      }, {
        "id": "sr:player:122615",
        "name": "Mancuello, Federico",
        "substituted_in": 1,
        "substituted_out": 0,
        "goals_scored": 0,
        "assists": 0,
        "own_goals": 0,
        "yellow_cards": 0,
        "yellow_red_cards": 0,
        "red_cards": 0
      }, {
        "id": "sr:player:60254",
        "name": "Rafael Marques",
        "substituted_in": 1,
        "substituted_out": 0,
        "goals_scored": 0,
        "assists": 0,
        "own_goals": 0,
        "yellow_cards": 0,
        "yellow_red_cards": 0,
        "red_cards": 0
      }]
    }, {
      "id": "sr:competitor:5926",
      "name": "Gremio FB Porto Alegrense",
      "abbreviation": "GPA",
      "qualifier": "away",
      "statistics": {
        "ball_possession": 58,
        "throw_ins": 10,
        "free_kicks": 19,
        "shots_off_target": 1,
        "shots_saved": 4,
        "fouls": 13,
        "offsides": 3,
        "goal_kicks": 5,
        "corner_kicks": 4,
        "shots_on_target": 2,
        "shots_blocked": 1,
        "yellow_cards": 1,
        "red_cards": 1
      },
      "players": [{
        "id": "sr:player:39427",
        "name": "Grohe, Marcelo",
        "substituted_in": 0,
        "substituted_out": 0,
        "goals_scored": 0,
        "assists": 0,
        "own_goals": 0,
        "yellow_cards": 0,
        "yellow_red_cards": 0,
        "red_cards": 0
      }, {
        "id": "sr:player:34143",
        "name": "Moura, Leo",
        "substituted_in": 0,
        "substituted_out": 0,
        "goals_scored": 0,
        "assists": 0,
        "own_goals": 0,
        "yellow_cards": 0,
        "yellow_red_cards": 0,
        "red_cards": 0
      }, {
        "id": "sr:player:43299",
        "name": "Miranda, Paulo",
        "substituted_in": 0,
        "substituted_out": 0,
        "goals_scored": 0,
        "assists": 0,
        "own_goals": 0,
        "yellow_cards": 0,
        "yellow_red_cards": 0,
        "red_cards": 0
      }, {
        "id": "sr:player:249647",
        "name": "Kannemann",
        "substituted_in": 0,
        "substituted_out": 0,
        "goals_scored": 0,
        "assists": 0,
        "own_goals": 0,
        "yellow_cards": 0,
        "yellow_red_cards": 0,
        "red_cards": 1
      }, {
        "id": "sr:player:165577",
        "name": "Cortez, Bruno",
        "substituted_in": 0,
        "substituted_out": 0,
        "goals_scored": 0,
        "assists": 0,
        "own_goals": 0,
        "yellow_cards": 0,
        "yellow_red_cards": 0,
        "red_cards": 0
      }, {
        "id": "sr:player:330693",
        "name": "Ramiro",
        "substituted_in": 0,
        "substituted_out": 0,
        "goals_scored": 0,
        "assists": 0,
        "own_goals": 0,
        "yellow_cards": 1,
        "yellow_red_cards": 0,
        "red_cards": 0
      }, {
        "id": "sr:player:26230",
        "name": "Maicon",
        "substituted_in": 0,
        "substituted_out": 1,
        "goals_scored": 0,
        "assists": 0,
        "own_goals": 0,
        "yellow_cards": 0,
        "yellow_red_cards": 0,
        "red_cards": 0
      }, {
        "id": "sr:player:836443",
        "name": "Arthur",
        "substituted_in": 0,
        "substituted_out": 0,
        "goals_scored": 0,
        "assists": 0,
        "own_goals": 0,
        "yellow_cards": 0,
        "yellow_red_cards": 0,
        "red_cards": 0
      }, {
        "id": "sr:player:33539",
        "name": "Cicero",
        "substituted_in": 0,
        "substituted_out": 0,
        "goals_scored": 0,
        "assists": 0,
        "own_goals": 0,
        "yellow_cards": 0,
        "yellow_red_cards": 0,
        "red_cards": 0
      }, {
        "id": "sr:player:386198",
        "name": "Everton",
        "substituted_in": 0,
        "substituted_out": 1,
        "goals_scored": 0,
        "assists": 1,
        "own_goals": 0,
        "yellow_cards": 0,
        "yellow_red_cards": 0,
        "red_cards": 0
      }, {
        "id": "sr:player:118815",
        "name": "Andre",
        "substituted_in": 0,
        "substituted_out": 1,
        "goals_scored": 1,
        "assists": 0,
        "own_goals": 0,
        "yellow_cards": 0,
        "yellow_red_cards": 0,
        "red_cards": 0
      }, {
        "id": "sr:player:835993",
        "name": "Jailson",
        "substituted_in": 1,
        "substituted_out": 0,
        "goals_scored": 0,
        "assists": 0,
        "own_goals": 0,
        "yellow_cards": 0,
        "yellow_red_cards": 0,
        "red_cards": 0
      }, {
        "id": "sr:player:312114",
        "name": "Bressan",
        "substituted_in": 1,
        "substituted_out": 0,
        "goals_scored": 0,
        "assists": 0,
        "own_goals": 0,
        "yellow_cards": 0,
        "yellow_red_cards": 0,
        "red_cards": 0
      }, {
        "id": "sr:player:1098176",
        "name": "Michel",
        "substituted_in": 1,
        "substituted_out": 0,
        "goals_scored": 0,
        "assists": 0,
        "own_goals": 0,
        "yellow_cards": 0,
        "yellow_red_cards": 0,
        "red_cards": 0
      }]
    }]
  }
}